 
 =================================================================
 
  PARSEC 1.1 - Real-space DFT Program
 
  serial run, no MPI interface
  starting run on 10-OCT-2006 11:10:22 -0400 UTC
 
 =================================================================
 
 Initial Run - starting from atomic potentials
 
 Grid data:
 ----------
 Confined system with zero boundary condition!
 Boundary sphere size is  17.007542 bohrs
 Grid spacing is  0.661404 bohrs
 
 Grid points are shifted from origin! 
 shift vector =   0.5000  0.5000  0.5000   [units of grid spacing]
 Finite-difference expansion of order 12
 
 Eigenvalue data: 
 ---------------- 
 Number of states:            8
Net cluster charge:    0.000
 
 Fermi temperature =   80.0 [K]
 
 Self-consistency data: 
 ----------------------
 Max number of iterations is           50
 Using DIAGLA (block preconditioned Lanczos eigen-problem solver)
 
 Self-consistency convergence criterion is  0.00020 Ry
 Diagonalization tolerance is 0.10000E-03
 Tolerance in initial diagonalization  100.000
 Buffer size in subspace is      1
 
 Mixer data:
 -----------
 Anderson mixer
 Initial Jacobian:  0.300  Mixing memory is  4
 
 Atom data:
 ----------

Total # of atom types is     2

 Atom coordinates input in angstroms
 
 There are   1 Si atoms
 and their initial coordinates are:
 
    x [bohr]          y [bohr]          z [bohr]     movable?
    0.000000000       0.000000000       0.000000000      1
 There are   4 H  atoms
 and their initial coordinates are:
 
    x [bohr]          y [bohr]          z [bohr]     movable?
    1.627432787       1.627432787       1.627432787      1
   -1.627432787      -1.627432787       1.627432787      1
   -1.627432787       1.627432787      -1.627432787      1
    1.627432787      -1.627432787      -1.627432787      1
 
 Total number of atoms =    5
 
 Correlation data:
 -----------------
 Exchange-Correlation functional is ca
 LDA, Ceperley-Alder, Perdew-Zunger parametrization
 
 Other input data:
 -----------------
No spin effects!

 
 Using new (r*V_ps) interpolation of pseudopot. !
 
 No eigenvalue output File!
 OutEvFlag =            0
 
 No minimization!
 
 No molecular dynamics!
 
 No polarizability!
 
 
 
 Pseudopotential messages
 ------------------------
 
 Pseudopotential file for atom type  1 is Si_POTRE.DAT

Si  ca  nrl  nc  
  ATM3      30-JUN- 4 Troullier-Martins
 3s 1.50  r= 2.69/3p 2.50  r= 3.82/

 ion charge =  4.000    
 logarithmic parameters of pseudopot. radial grid
 r(i) = a*[Exp(b(i-1)) - 1)]
 Si:   a = 0.177054E-03  b = 0.100000E-01    nr =     1343

NOTICE: No Core-Correction !

 Occupancy of orbitals : 
   1.500   2.500
 # of pseudopot= 2, Local component is l = 1, Core radius=  3.82
 
 Pseudopotential file for atom type  2 is H_POTRE.DAT

H   ca  nrl  nc  
  ATM3      30-JUN- 4 Troullier-Martins
 1s 1.00  r= 1.99/

 ion charge =  1.000    
 logarithmic parameters of pseudopot. radial grid
 r(i) = a*[Exp(b(i-1)) - 1)]
 H :   a = 0.247875E-02  b = 0.100000E-01    nr =     1079

NOTICE: No Core-Correction !

 Occupancy of orbitals : 
   1.000
 # of pseudopot= 1, Local component is l = 0, Core radius=  1.99
 
 Using order          18 for calculating dV/dr in pseudo
 
 Normalization check and Kleinman-Bylander Integral
 
                                 s                 p                 d
  Si   Normalization        1.00001666        1.00001681
  Si   K-B Integral         0.23676376       -3.29274804
 
  H    Normalization        1.00001673
  H    K-B Integral        -1.76269563
 

 Symmetry Properties:
 --------------------

 The space group of the crystal is symmorphic
 (this usually means that symmetry operations do not
 involve rotations and translations simultaneously)

 Operation number: 
       1  2  3  4  5  6  7  8  9 10 11 12
      37 38 39 40 41 42 43 44 45 46 47 48


    Rotation matrices (r-lattice) and fractional translations (r-lattice)

    1     1  0  0     0  1  0     0  0  1      0.00000  0.00000  0.00000   E  
    2     1  0  0     0 -1  0     0  0 -1      0.00000  0.00000  0.00000   C2 
    3    -1  0  0     0  1  0     0  0 -1      0.00000  0.00000  0.00000   C2 
    4    -1  0  0     0 -1  0     0  0  1      0.00000  0.00000  0.00000   C2 
    5     0  0  1     1  0  0     0  1  0      0.00000  0.00000  0.00000   C3 
    6     0  0 -1     1  0  0     0 -1  0      0.00000  0.00000  0.00000   C3 
    7     0  0 -1    -1  0  0     0  1  0      0.00000  0.00000  0.00000   C3 
    8     0  0  1    -1  0  0     0 -1  0      0.00000  0.00000  0.00000   C3 
    9     0  1  0     0  0  1     1  0  0      0.00000  0.00000  0.00000   C3 
   10     0 -1  0     0  0 -1     1  0  0      0.00000  0.00000  0.00000   C3 
   11     0  1  0     0  0 -1    -1  0  0      0.00000  0.00000  0.00000   C3 
   12     0 -1  0     0  0  1    -1  0  0      0.00000  0.00000  0.00000   C3 
   13     0  1  0     1  0  0     0  0  1      0.00000  0.00000  0.00000   IC2
   14     0 -1  0     1  0  0     0  0 -1      0.00000  0.00000  0.00000   IC4
   15     0  1  0    -1  0  0     0  0 -1      0.00000  0.00000  0.00000   IC4
   16     0 -1  0    -1  0  0     0  0  1      0.00000  0.00000  0.00000   IC2
   17     1  0  0     0  0  1     0  1  0      0.00000  0.00000  0.00000   IC2
   18     1  0  0     0  0 -1     0 -1  0      0.00000  0.00000  0.00000   IC2
   19    -1  0  0     0  0 -1     0  1  0      0.00000  0.00000  0.00000   IC4
   20    -1  0  0     0  0  1     0 -1  0      0.00000  0.00000  0.00000   IC4
   21     0  0  1     0  1  0     1  0  0      0.00000  0.00000  0.00000   IC2
   22     0  0 -1     0 -1  0     1  0  0      0.00000  0.00000  0.00000   IC4
   23     0  0 -1     0  1  0    -1  0  0      0.00000  0.00000  0.00000   IC2
   24     0  0  1     0 -1  0    -1  0  0      0.00000  0.00000  0.00000   IC4
 
  Found Abelian subgroup D_2   with            4  symmetry operations
 
  Character table :
----------------------------------------
 Representation  |     E   C2   C2   C2
     A       1   |     1    1    1    1
     B1      2   |     1    1   -1   -1
     B2      3   |     1   -1    1   -1
     B3      4   |     1   -1   -1    1
----------------------------------------
 Operation number:     1    2    3    4
 
 
 Setup messages:
 ---------------
 The Hamiltonian matrix size is       71136
  reduced size is        17784
  maximum distance between grid points and their images is
   0.000      [bohr]
 
 There are 36 laplacian-related non-diagonal elements per row
 
 Non-local pseudopotential messages:
 -----------------------------------
 Max # of nonlocal points for one atom =          840
 
 Sizes of all non-local blocks 
   840   108   108   108   108
 
 
 Memory usage:
 -------------
 estimated memory usage (no MPI)  :    24.96 MB
 
 total electrons from atomic density is     8.00041
 total electrons from atomic density is     8.00000

 Max and min values of charge density [e/bohr^3]  0.1278E+00  0.5199E-10     
 
Hartree potential time [sec]:       1.22
 
 
Setup time [sec] :       1.78
 
 -----------------------------------------------------------------
 
 Number of converged eigen-pairs per representation: 
     3     3     3     3                          total =     12
 Number of matrix-vector multiplications: 
   158   231   235   237                          total =    861
 
Diagonalization time [sec] :      21.92
 
 Fermi level at    -0.6685 [Ry]
 
   State   Eigenvalue [Ry]      Eigenvalue [eV]    Occup.     Repr.
 
    1        -1.2194634921       -16.5917763808    1.0000        1
    2        -0.8472524845       -11.5275478531    1.0000        2
    3        -0.8472524845       -11.5275478530    1.0000        3
    4        -0.8472524845       -11.5275478530    1.0000        4
    5        -0.1229650261        -1.6730375518    0.0000        1
    6        -0.1174970502        -1.5986413659    0.0000        3
    7        -0.1174970502        -1.5986413658    0.0000        4
    8        -0.1174970502        -1.5986413657    0.0000        2

 Max and min values of charge density [e/bohr^3]  0.1913E+00  0.2480E-15     
 
Hartree potential time [sec]:       1.33
 
 
   Eigenvalue Energy             =          -7.52244189 [Ry]
   Hartree Energy                =          22.94268164 [Ry]
   Integral_{Vxc*rho}            =          -6.68710997 [Ry]
   Exc = Integral{eps_xc*rho}    =          -5.12439717 [Ry]
   Electron-Ion energy           =         -51.98522524 [Ry]
   Ion-Ion Energy                =          13.95931646 [Ry]
   (E(new)-E(old))/atom  =           -71.71078228 [eV]
 
   Total Energy =           -12.39370294 [Ry]
   Energy/atom  =           -33.72524868 [eV]
 
 
  0- 1    SRE of pot. & charge weighted pot =   2.6919891106    0.3378311570

 Number of converged eigen-pairs per representation: 
     3     2     3     3                          total =     11
 Number of matrix-vector multiplications: 
   116    98   148   159                          total =    521
 
Diagonalization time [sec] :      13.05
 
 Fermi level at    -0.5904 [Ry]
 
   State   Eigenvalue [Ry]      Eigenvalue [eV]    Occup.     Repr.
 
    1        -1.1204123442       -15.2441062726    1.0000        1
    2        -0.7537391145       -10.2552236442    1.0000        2
    3        -0.7537391057       -10.2552235241    1.0000        3
    4        -0.7537391049       -10.2552235128    1.0000        4
    5        -0.0812099934        -1.1049269278    0.0000        1
    6        -0.0604312578        -0.8222156077    0.0000        4
    7        -0.0604312557        -0.8222155782    0.0000        3
    8        -0.0604312503        -0.8222155050    0.0000        2

 Max and min values of charge density [e/bohr^3]  0.1864E+00  0.1410E-14     
 
Hartree potential time [sec]:       1.36
 
 
   Eigenvalue Energy             =          -6.76325934 [Ry]
   Hartree Energy                =          22.59723530 [Ry]
   Integral_{Vxc*rho}            =          -6.57793569 [Ry]
   Exc = Integral{eps_xc*rho}    =          -5.04122455 [Ry]
   Electron-Ion energy           =         -51.48211186 [Ry]
   Ion-Ion Energy                =          13.95931646 [Ry]
   (E(new)-E(old))/atom  =            -0.08007828 [eV]
 
   Total Energy =           -12.42313093 [Ry]
   Energy/atom  =           -33.80532697 [eV]
 
 
  0- 2    SRE of pot. & charge weighted pot =   1.5591753022    0.1913276120

 Number of converged eigen-pairs per representation: 
     3     2     3     3                          total =     11
 Number of matrix-vector multiplications: 
   126   123   180   158                          total =    587
 Number of converged eigen-pairs per representation: 
     3     4     3     3                          total =     13
 Number of matrix-vector multiplications: 
     0   108     0     0                          total =    108
 
Diagonalization time [sec] :      17.53
 
 Fermi level at    -0.4919 [Ry]
 
   State   Eigenvalue [Ry]      Eigenvalue [eV]    Occup.     Repr.
 
    1        -0.9904143555       -13.4753796383    1.0000        1
    2        -0.6285681731        -8.5521728493    1.0000        2
    3        -0.6285681525        -8.5521725697    1.0000        3
    4        -0.6285681495        -8.5521725290    1.0000        4
    5        -0.0352601161        -0.4797420873    0.0000        1
    6         0.0066026258         0.0898340065    0.0000        2
    7         0.0066026913         0.0898348969    0.0000        4
    8         0.0066027640         0.0898358868    0.0000        3

 Max and min values of charge density [e/bohr^3]  0.1769E+00  0.9676E-14     
 
Hartree potential time [sec]:       1.36
 
 
   Eigenvalue Energy             =          -5.75223766 [Ry]
   Hartree Energy                =          22.12189415 [Ry]
   Integral_{Vxc*rho}            =          -6.41538171 [Ry]
   Exc = Integral{eps_xc*rho}    =          -4.91737379 [Ry]
   Electron-Ion energy           =         -50.75686734 [Ry]
   Ion-Ion Energy                =          13.95931646 [Ry]
   (E(new)-E(old))/atom  =            -0.03990230 [eV]
 
   Total Energy =           -12.43779464 [Ry]
   Energy/atom  =           -33.84522927 [eV]
 
 
  0- 3    SRE of pot. & charge weighted pot =   0.0873753210    0.0125523621

 Number of converged eigen-pairs per representation: 
     3     3     2     3                          total =     11
 Number of matrix-vector multiplications: 
    86    79    52    76                          total =    293
 
Diagonalization time [sec] :       7.09
 
 Fermi level at    -0.4958 [Ry]
 
   State   Eigenvalue [Ry]      Eigenvalue [eV]    Occup.     Repr.
 
    1        -0.9966756783       -13.5605699433    1.0000        1
    2        -0.6311089156        -8.5867416845    1.0000        2
    3        -0.6311088884        -8.5867413137    1.0000        3
    4        -0.6311088844        -8.5867412589    1.0000        4
    5        -0.0366011587        -0.4979880452    0.0000        1
    6         0.0050986221         0.0693708322    0.0000        2
    7         0.0050986304         0.0693709458    0.0000        4
    8         0.0050986759         0.0693715641    0.0000        3

 Max and min values of charge density [e/bohr^3]  0.1750E+00  0.8016E-14     
 
Hartree potential time [sec]:       1.43
 
 
   Eigenvalue Energy             =          -5.78000473 [Ry]
   Hartree Energy                =          22.17327780 [Ry]
   Integral_{Vxc*rho}            =          -6.41838051 [Ry]
   Exc = Integral{eps_xc*rho}    =          -4.91967421 [Ry]
   Electron-Ion energy           =         -50.81483533 [Ry]
   Ion-Ion Energy                =          13.95931646 [Ry]
   (E(new)-E(old))/atom  =            -0.00117695 [eV]
 
   Total Energy =           -12.43822716 [Ry]
   Energy/atom  =           -33.84640622 [eV]
 
 
  0- 4    SRE of pot. & charge weighted pot =   0.0593679701    0.0075568129

 Number of converged eigen-pairs per representation: 
     3     3     2     3                          total =     11
 Number of matrix-vector multiplications: 
    71    67    48    70                          total =    256
 
Diagonalization time [sec] :       6.13
 
 Fermi level at    -0.4920 [Ry]
 
   State   Eigenvalue [Ry]      Eigenvalue [eV]    Occup.     Repr.
 
    1        -0.9915018808       -13.4901762901    1.0000        1
    2        -0.6262049184        -8.5200188791    1.0000        2
    3        -0.6262049163        -8.5200188507    1.0000        3
    4        -0.6262049031        -8.5200186709    1.0000        4
    5        -0.0351161988        -0.4777839781    0.0000        1
    6         0.0074247937         0.1010202578    0.0000        2
    7         0.0074248063         0.1010204290    0.0000        4
    8         0.0074248478         0.1010209945    0.0000        3

 Max and min values of charge density [e/bohr^3]  0.1747E+00  0.1114E-13     
 
Hartree potential time [sec]:       1.36
 
 
   Eigenvalue Energy             =          -5.74023324 [Ry]
   Hartree Energy                =          22.15260001 [Ry]
   Integral_{Vxc*rho}            =          -6.41162496 [Ry]
   Exc = Integral{eps_xc*rho}    =          -4.91452569 [Ry]
   Electron-Ion energy           =         -50.78361567 [Ry]
   Ion-Ion Energy                =          13.95931646 [Ry]
   (E(new)-E(old))/atom  =            -0.00007064 [eV]
 
   Total Energy =           -12.43825312 [Ry]
   Energy/atom  =           -33.84647686 [eV]
 
 
  0- 5    SRE of pot. & charge weighted pot =   0.0135036562    0.0005647860

 Number of converged eigen-pairs per representation: 
     3     3     2     3                          total =     11
 Number of matrix-vector multiplications: 
    57    47    31    51                          total =    186
 Number of converged eigen-pairs per representation: 
     3     3     4     3                          total =     13
 Number of matrix-vector multiplications: 
     0     0   104     0                          total =    104
 
Diagonalization time [sec] :       7.01
 
 Fermi level at    -0.4920 [Ry]
 
   State   Eigenvalue [Ry]      Eigenvalue [eV]    Occup.     Repr.
 
    1        -0.9914092699       -13.4889162449    1.0000        1
    2        -0.6261088555        -8.5187118663    1.0000        4
    3        -0.6261088519        -8.5187118177    1.0000        3
    4        -0.6261088512        -8.5187118082    1.0000        2
    5        -0.0353682775        -0.4812137095    0.0000        1
    6         0.0073922016         0.1005768164    0.0000        4
    7         0.0073922329         0.1005772423    0.0000        3
    8         0.0073922499         0.1005774737    0.0000        2

 Max and min values of charge density [e/bohr^3]  0.1747E+00  0.1027E-13     
 
Hartree potential time [sec]:       1.41
 
 
   Eigenvalue Energy             =          -5.73947166 [Ry]
   Hartree Energy                =          22.15205077 [Ry]
   Integral_{Vxc*rho}            =          -6.41143480 [Ry]
   Exc = Integral{eps_xc*rho}    =          -4.91437995 [Ry]
   Electron-Ion energy           =         -50.78306154 [Ry]
   Ion-Ion Energy                =          13.95931646 [Ry]
   (E(new)-E(old))/atom  =            -0.00000116 [eV]
 
   Total Energy =           -12.43825355 [Ry]
   Energy/atom  =           -33.84647802 [eV]
 
 
  0- 6    SRE of pot. & charge weighted pot =   0.0046440727    0.0004324224

 Number of converged eigen-pairs per representation: 
     3     2     3     3                          total =     11
 Number of matrix-vector multiplications: 
    48     9    40    40                          total =    137
 
Diagonalization time [sec] :       3.07
 
 Fermi level at    -0.4922 [Ry]
 
   State   Eigenvalue [Ry]      Eigenvalue [eV]    Occup.     Repr.
 
    1        -0.9917197845       -13.4931410442    1.0000        1
    2        -0.6263831927        -8.5224444428    1.0000        4
    3        -0.6263831818        -8.5224442954    1.0000        3
    4        -0.6263831775        -8.5224442361    1.0000        2
    5        -0.0355069959        -0.4831010846    0.0000        1
    6         0.0072417156         0.0985293345    0.0000        4
    7         0.0072417431         0.0985297077    0.0000        3
    8         0.0072417758         0.0985301526    0.0000        2

 Max and min values of charge density [e/bohr^3]  0.1747E+00  0.8682E-14     
 
Hartree potential time [sec]:       1.42
 
 
   Eigenvalue Energy             =          -5.74173867 [Ry]
   Hartree Energy                =          22.15324977 [Ry]
   Integral_{Vxc*rho}            =          -6.41175096 [Ry]
   Exc = Integral{eps_xc*rho}    =          -4.91462083 [Ry]
   Electron-Ion energy           =         -50.78481354 [Ry]
   Ion-Ion Energy                =          13.95931646 [Ry]
   (E(new)-E(old))/atom  =            -0.00000026 [eV]
 
   Total Energy =           -12.43825364 [Ry]
   Energy/atom  =           -33.84647828 [eV]
 
 
  0- 7    SRE of pot. & charge weighted pot =   0.0012432449    0.0000584003

 
Time for self-consistent field [sec] :      85.56
 
Total charge (user input) [e] =   0.00000000
Total charge (computed) [e] =   0.00000000
 Dipole components [Debye]:
x-component =   0.00000000
y-component =   0.00000000
z-component =   0.00000000
 
 Coordinates, forces, torque
 ============================
 
  symmetrizing forces according to symmetry operations 
             total (net) force [Ry/bohr]:      0.000000    0.000000    0.000000
 
 coordinates and total forces (after setting net force to zero)
-atom-  ----x----   ----y----   ----z-----   ----Fx----  ----Fy----   ----Fz---
                       [bohr]                             [Ry/bohr]            
 
   1     0.000000    0.000000    0.000000      0.000000    0.000000    0.000000
   2     1.627433    1.627433    1.627433     -0.014445   -0.014445   -0.014445
   3    -1.627433   -1.627433    1.627433      0.014445    0.014445   -0.014445
   4    -1.627433    1.627433   -1.627433      0.014445   -0.014445    0.014445
   5     1.627433   -1.627433   -1.627433     -0.014445    0.014445    0.014445
 
total torque [Ry/radian] :     0.000000    0.000000    0.000000
 
 
Time for movement    0 is [sec]:      85.77
 
 =================================================================
 
 
 Total CPU time [sec] :      87.55
Wall-clock time [sec] :      87.53
 Current date/time: 10-OCT-2006 11:11:49 -0400 UTC
 
 =================================================================
 
